digraph "/home/andrzej/code_workspace/bag-of-visual-words/include/rapidjson/internal" {
  compound=true
  node [ fontsize="10", fontname="Helvetica"];
  edge [ labelfontsize="10", labelfontname="Helvetica"];
  subgraph clusterdir_32fb88e4d38e67d524aa70efbc36f66b {
    graph [ bgcolor="#ddddee", pencolor="black", label="rapidjson" fontname="Helvetica", fontsize="10", URL="dir_32fb88e4d38e67d524aa70efbc36f66b.html"]
  dir_8d7584a8244d286291cd37b99676a43b [shape=box, label="internal", style="filled", fillcolor="#eeeeff", pencolor="black", URL="dir_8d7584a8244d286291cd37b99676a43b.html"];
  }
}
